01_fsm_led_controller/.Xil/Vivado-22784-LAPTOP-CHCSI1R5/hw_ila_data_1/zip_work/waveform.vcd
$date
        2026-May-11 11:17:39
$end
$version
        Vivado v2022.2 (64-bit)
$end
$timescale
        1ps
$end
$scope module dut $end
$var reg 1 " rst_1 $end
$var reg 1 # start_1 $end
$var reg 1 $ src_valid $end
$var reg 8 % src_data [7:0] $end
$var reg 1 - src_ready $end
$var reg 1 . done $end
$var reg 8 / last_data [7:0] $end
$var reg 8 7 recv_count [7:0] $end
$var reg 8 ? error_count [7:0] $end
$var reg 1 G sink_done $end
$var reg 1 H led_OBUF_1 $end
$var reg 1 I led_OBUF $end
$var reg 1 J _TRIGGER $end
$var reg 1 K _WINDOW $end
$var reg 1 L _GAP $end
$upscope $end
$enddefinitions $end
#0
$dumpvars
0"
0#
0$
b0 %
1-
0.
b10000 /
b1011111 7
b110111 ?
0G
0H
1I
0J
1K
0L
$end
#334
1#
#335
1$
#339
b1 /
b1100000 7
b111000 ?
#340
b1100001 7
b111001 ?
#341
b1100010 7
b111010 ?
#342
b1100011 7
b111011 ?
#343
b1100100 7
b111100 ?
#344
b1100101 7
b111101 ?
#345
b1100110 7
b111110 ?
#346
b1100111 7
b111111 ?
#347
b1101000 7
b1000000 ?
#348
b1101001 7
b1000001 ?
#349
b1101010 7
b1000010 ?
#350
b1101011 7
b1000011 ?
#351
b1101100 7
b1000100 ?
#352
b1101101 7
b1000101 ?
#353
b1101110 7
b1000110 ?
#354
b1101111 7
b1000111 ?
#355
b1110000 7
b1001000 ?
#356
b1110001 7
b1001001 ?
#357
b1110010 7
b1001010 ?
#358
b1110011 7
b1001011 ?
#359
b1110100 7
b1001100 ?
#360
b1110101 7
b1001101 ?
#361
b1110110 7
b1001110 ?
#362
b1110111 7
b1001111 ?
#363
b1111000 7
b1010000 ?
#364
b1111001 7
b1010001 ?
#365
b1111010 7
b1010010 ?
#366
b1111011 7
b1010011 ?
#367
b1111100 7
b1010100 ?
#368
b1111101 7
b1010101 ?
#369
b1111110 7
b1010110 ?
#370
b1111111 7
b1010111 ?
#371
b10000000 7
b1011000 ?
#372
b10000001 7
b1011001 ?
#373
b10000010 7
b1011010 ?
#374
b10000011 7
b1011011 ?
#375
b10000100 7
b1011100 ?
#376
b10000101 7
b1011101 ?
#377
b10000110 7
b1011110 ?
#378
b10000111 7
b1011111 ?
#379
b10001000 7
b1100000 ?
#380
b10001001 7
b1100001 ?
#381
b10001010 7
b1100010 ?
#382
b10001011 7
b1100011 ?
#383
b10001100 7
b1100100 ?
#384
b10001101 7
b1100101 ?
#385
b10001110 7
b1100110 ?
#386
b10001111 7
b1100111 ?
#387
b10010000 7
b1101000 ?
#388
b10010001 7
b1101001 ?
#389
b10010010 7
b1101010 ?
#390
b10010011 7
b1101011 ?
#391
b10010100 7
b1101100 ?
#392
b10010101 7
b1101101 ?
#393
b10010110 7
b1101110 ?
#394
b10010111 7
b1101111 ?
#395
b10011000 7
b1110000 ?
#396
b10011001 7
b1110001 ?
#397
b10011010 7
b1110010 ?
#398
b10011011 7
b1110011 ?
#399
b10011100 7
b1110100 ?
#400
b10011101 7
b1110101 ?
#401
b10011110 7
b1110110 ?
#402
b10011111 7
b1110111 ?
#403
b10100000 7
b1111000 ?
#404
b10100001 7
b1111001 ?
#405
b10100010 7
b1111010 ?
#406
b10100011 7
b1111011 ?
#407
b10100100 7
b1111100 ?
#408
b10100101 7
b1111101 ?
#409
b10100110 7
b1111110 ?
#410
b10100111 7
b1111111 ?
#411
b10101000 7
b10000000 ?
#412
b10101001 7
b10000001 ?
#413
b10101010 7
b10000010 ?
#414
b10101011 7
b10000011 ?
#415
b10101100 7
b10000100 ?
#416
b10101101 7
b10000101 ?
#417
b10101110 7
b10000110 ?
#418
b10101111 7
b10000111 ?
#419
b10110000 7
b10001000 ?
#420
b10110001 7
b10001001 ?
#421
b10110010 7
b10001010 ?
#422
b10110011 7
b10001011 ?
#423
b10110100 7
b10001100 ?
#424
b10110101 7
b10001101 ?
#425
b10110110 7
b10001110 ?
#426
b10110111 7
b10001111 ?
#427
b10111000 7
b10010000 ?
#428
b10111001 7
b10010001 ?
#429
b10111010 7
b10010010 ?
#430
b10111011 7
b10010011 ?
#431
b10111100 7
b10010100 ?
#432
b10111101 7
b10010101 ?
#433
b10111110 7
b10010110 ?
#434
b10111111 7
b10010111 ?
#435
b11000000 7
b10011000 ?
#436
b11000001 7
b10011001 ?
#437
b11000010 7
b10011010 ?
#438
b11000011 7
b10011011 ?
#439
b11000100 7
b10011100 ?
#440
b11000101 7
b10011101 ?
#441
b11000110 7
b10011110 ?
#442
b11000111 7
b10011111 ?
#443
b11001000 7
b10100000 ?
#444
b11001001 7
b10100001 ?
#445
b11001010 7
b10100010 ?
#446
b11001011 7
b10100011 ?
#447
b11001100 7
b10100100 ?
#448
b11001101 7
b10100101 ?
#449
b11001110 7
b10100110 ?
#450
b11001111 7
b10100111 ?
#451
b11010000 7
b10101000 ?
#452
b11010001 7
b10101001 ?
#453
b11010010 7
b10101010 ?
#454
b11010011 7
b10101011 ?
#455
b11010100 7
b10101100 ?
#456
b11010101 7
b10101101 ?
#457
b11010110 7
b10101110 ?
#458
b11010111 7
b10101111 ?
#459
b11011000 7
b10110000 ?
#460
b11011001 7
b10110001 ?
#461
b11011010 7
b10110010 ?
#462
b11011011 7
b10110011 ?
#463
b11011100 7
b10110100 ?
#464
b11011101 7
b10110101 ?
#465
b11011110 7
b10110110 ?
#466
b11011111 7
b10110111 ?
#467
b11100000 7
b10111000 ?
#468
b11100001 7
b10111001 ?
#469
b11100010 7
b10111010 ?
#470
b11100011 7
b10111011 ?
#471
b11100100 7
b10111100 ?
#472
b11100101 7
b10111101 ?
#473
b11100110 7
b10111110 ?
#474
b11100111 7
b10111111 ?
#475
b11101000 7
b11000000 ?
#476
b11101001 7
b11000001 ?
#477
b11101010 7
b11000010 ?
#478
b11101011 7
b11000011 ?
#479
b11101100 7
b11000100 ?
#480
b11101101 7
b11000101 ?
#481
b11101110 7
b11000110 ?
#482
b11101111 7
b11000111 ?
#483
b11110000 7
b11001000 ?
#484
b11110001 7
b11001001 ?
#485
b11110010 7
b11001010 ?
#486
b11110011 7
b11001011 ?
#487
b11110100 7
b11001100 ?
#488
b11110101 7
b11001101 ?
#489
b11110110 7
b11001110 ?
#490
b11110111 7
b11001111 ?
#491
b11111000 7
b11010000 ?
#492
b11111001 7
b11010001 ?
#493
b11111010 7
b11010010 ?
#494
b11111011 7
b11010011 ?
#495
b11111100 7
b11010100 ?
#496
b11111101 7
b11010101 ?
#497
b11111110 7
b11010110 ?
#498
b11111111 7
b11010111 ?
#499
b0 7
b11011000 ?
#500
b1 7
1J
#501
b10 7
b11011001 ?
#502
b11 7
b11011010 ?
#503
b100 7
b11011011 ?
#504
b101 7
b11011100 ?
#505
b110 7
b11011101 ?
#506
b111 7
b11011110 ?
#507
b1000 7
b11011111 ?
#508
b1001 7
b11100000 ?
#509
b1010 7
b11100001 ?
#510
b1011 7
b11100010 ?
#511
b1100 7
b11100011 ?
#512
b1101 7
b11100100 ?
#513
b1110 7
b11100101 ?
#514
b1111 7
b11100110 ?
#515
b10000 7
b11100111 ?
#516
b10001 7
b11101000 ?
#517
b10010 7
b11101001 ?
#518
b10011 7
b11101010 ?
#519
b10100 7
b11101011 ?
#520
b10101 7
b11101100 ?
#521
b10110 7
b11101101 ?
#522
b10111 7
b11101110 ?
#523
b11000 7
b11101111 ?
#524
b11001 7
b11110000 ?
#525
b11010 7
b11110001 ?
#526
b11011 7
b11110010 ?
#527
b11100 7
b11110011 ?
#528
b11101 7
b11110100 ?
#529
b11110 7
b11110101 ?
#530
b11111 7
b11110110 ?
#531
b100000 7
b11110111 ?
#532
b100001 7
b11111000 ?
#533
b100010 7
b11111001 ?
#534
b100011 7
b11111010 ?
#535
b100100 7
b11111011 ?
#536
b100101 7
b11111100 ?
#537
b100110 7
b11111101 ?
#538
b100111 7
b11111110 ?
#539
b101000 7
b11111111 ?
#540
b101001 7
b0 ?
#541
b101010 7
b1 ?
#542
b101011 7
b10 ?
#543
b101100 7
b11 ?
#544
b101101 7
b100 ?
#545
b101110 7
b101 ?
#546
b101111 7
b110 ?
#547
b110000 7
b111 ?
#548
b110001 7
b1000 ?
#549
b110010 7
b1001 ?
#550
b110011 7
b1010 ?
#551
b110100 7
b1011 ?
#552
b110101 7
b1100 ?
#553
b110110 7
b1101 ?
#554
b110111 7
b1110 ?
#555
b111000 7
b1111 ?
#556
b111001 7
b10000 ?
#557
b111010 7
b10001 ?
#558
b111011 7
b10010 ?
#559
b111100 7
b10011 ?
#560
b111101 7
b10100 ?
#561
b111110 7
b10101 ?
#562
b111111 7
b10110 ?
#563
b1000000 7
b10111 ?
#564
b1000001 7
b11000 ?
#565
b1000010 7
b11001 ?
#566
b1000011 7
b11010 ?
#567
b1000100 7
b11011 ?
#568
b1000101 7
b11100 ?
#569
b1000110 7
b11101 ?
#570
b1000111 7
b11110 ?
#571
b1001000 7
b11111 ?
#572
b1001001 7
b100000 ?
#573
b1001010 7
b100001 ?
#574
b1001011 7
b100010 ?
#575
b1001100 7
b100011 ?
#576
b1001101 7
b100100 ?
#577
b1001110 7
b100101 ?
#578
b1001111 7
b100110 ?
#579
b1010000 7
b100111 ?
#580
b1010001 7
b101000 ?
#581
b1010010 7
b101001 ?
#582
b1010011 7
b101010 ?
#583
b1010100 7
b101011 ?
#584
b1010101 7
b101100 ?
#585
b1010110 7
b101101 ?
#586
b1010111 7
b101110 ?
#587
b1011000 7
b101111 ?
#588
b1011001 7
b110000 ?
#589
b1011010 7
b110001 ?
#590
b1011011 7
b110010 ?
#591
b1011100 7
b110011 ?
#592
b1011101 7
b110100 ?
#593
b1011110 7
b110101 ?
#594
b1011111 7
b110110 ?
#595
b1100000 7
b110111 ?
#596
b1100001 7
b111000 ?
#597
b1100010 7
b111001 ?
#598
b1100011 7
b111010 ?
#599
b1100100 7
b111011 ?
#600
b1100101 7
b111100 ?
#601
b1100110 7
b111101 ?
#602
b1100111 7
b111110 ?
#603
b1101000 7
b111111 ?
#604
b1101001 7
b1000000 ?
#605
b1101010 7
b1000001 ?
#606
b1101011 7
b1000010 ?
#607
b1101100 7
b1000011 ?
#608
b1101101 7
b1000100 ?
#609
b1101110 7
b1000101 ?
#610
b1101111 7
b1000110 ?
#611
b1110000 7
b1000111 ?
#612
b1110001 7
b1001000 ?
#613
b1110010 7
b1001001 ?
#614
b1110011 7
b1001010 ?
#615
b1110100 7
b1001011 ?
#616
b1110101 7
b1001100 ?
#617
b1110110 7
b1001101 ?
#618
b1110111 7
b1001110 ?
#619
b1111000 7
b1001111 ?
#620
b1111001 7
b1010000 ?
#621
b1111010 7
b1010001 ?
#622
b1111011 7
b1010010 ?
#623
b1111100 7
b1010011 ?
#624
b1111101 7
b1010100 ?
#625
b1111110 7
b1010101 ?
#626
b1111111 7
b1010110 ?
#627
b10000000 7
b1010111 ?
#628
b10000001 7
b1011000 ?
#629
b10000010 7
b1011001 ?
#630
b10000011 7
b1011010 ?
#631
b10000100 7
b1011011 ?
#632
b10000101 7
b1011100 ?
#633
b10000110 7
b1011101 ?
#634
b10000111 7
b1011110 ?
#635
b10001000 7
b1011111 ?
#636
b10001001 7
b1100000 ?
#637
b10001010 7
b1100001 ?
#638
b10001011 7
b1100010 ?
#639
b10001100 7
b1100011 ?
#640
b10001101 7
b1100100 ?
#641
b10001110 7
b1100101 ?
#642
b10001111 7
b1100110 ?
#643
b10010000 7
b1100111 ?
#644
b10010001 7
b1101000 ?
#645
b10010010 7
b1101001 ?
#646
b10010011 7
b1101010 ?
#647
b10010100 7
b1101011 ?
#648
b10010101 7
b1101100 ?
#649
b10010110 7
b1101101 ?
#650
b10010111 7
b1101110 ?
#651
b10011000 7
b1101111 ?
#652
b10011001 7
b1110000 ?
#653
b10011010 7
b1110001 ?
#654
b10011011 7
b1110010 ?
#655
b10011100 7
b1110011 ?
#656
b10011101 7
b1110100 ?
#657
b10011110 7
b1110101 ?
#658
b10011111 7
b1110110 ?
#659
b10100000 7
b1110111 ?
#660
b10100001 7
b1111000 ?
#661
b10100010 7
b1111001 ?
#662
b10100011 7
b1111010 ?
#663
b10100100 7
b1111011 ?
#664
b10100101 7
b1111100 ?
#665
b10100110 7
b1111101 ?
#666
b10100111 7
b1111110 ?
#667
b10101000 7
b1111111 ?
#668
b10101001 7
b10000000 ?
#669
b10101010 7
b10000001 ?
#670
b10101011 7
b10000010 ?
#671
b10101100 7
b10000011 ?
#672
b10101101 7
b10000100 ?
#673
b10101110 7
b10000101 ?
#674
b10101111 7
b10000110 ?
#675
b10110000 7
b10000111 ?
#676
b10110001 7
b10001000 ?
#677
b10110010 7
b10001001 ?
#678
b10110011 7
b10001010 ?
#679
b10110100 7
b10001011 ?
#680
b10110101 7
b10001100 ?
#681
b10110110 7
b10001101 ?
#682
b10110111 7
b10001110 ?
#683
b10111000 7
b10001111 ?
#684
b10111001 7
b10010000 ?
#685
b10111010 7
b10010001 ?
#686
b10111011 7
b10010010 ?
#687
b10111100 7
b10010011 ?
#688
b10111101 7
b10010100 ?
#689
b10111110 7
b10010101 ?
#690
b10111111 7
b10010110 ?
#691
b11000000 7
b10010111 ?
#692
b11000001 7
b10011000 ?
#693
b11000010 7
b10011001 ?
#694
b11000011 7
b10011010 ?
#695
b11000100 7
b10011011 ?
#696
b11000101 7
b10011100 ?
#697
b11000110 7
b10011101 ?
#698
b11000111 7
b10011110 ?
#699
b11001000 7
b10011111 ?
#700
b11001001 7
b10100000 ?
#701
b11001010 7
b10100001 ?
#702
b11001011 7
b10100010 ?
#703
b11001100 7
b10100011 ?
#704
b11001101 7
b10100100 ?
#705
b11001110 7
b10100101 ?
#706
b11001111 7
b10100110 ?
#707
b11010000 7
b10100111 ?
#708
b11010001 7
b10101000 ?
#709
b11010010 7
b10101001 ?
#710
b11010011 7
b10101010 ?
#711
b11010100 7
b10101011 ?
#712
b11010101 7
b10101100 ?
#713
b11010110 7
b10101101 ?
#714
b11010111 7
b10101110 ?
#715
b11011000 7
b10101111 ?
#716
b11011001 7
b10110000 ?
#717
b11011010 7
b10110001 ?
#718
b11011011 7
b10110010 ?
#719
b11011100 7
b10110011 ?
#720
b11011101 7
b10110100 ?
#721
b11011110 7
b10110101 ?
#722
b11011111 7
b10110110 ?
#723
b11100000 7
b10110111 ?
#724
b11100001 7
b10111000 ?
#725
b11100010 7
b10111001 ?
#726
b11100011 7
b10111010 ?
#727
b11100100 7
b10111011 ?
#728
b11100101 7
b10111100 ?
#729
b11100110 7
b10111101 ?
#730
b11100111 7
b10111110 ?
#731
b11101000 7
b10111111 ?
#732
b11101001 7
b11000000 ?
#733
b11101010 7
b11000001 ?
#734
b11101011 7
b11000010 ?
#735
b11101100 7
b11000011 ?
#736
b11101101 7
b11000100 ?
#737
b11101110 7
b11000101 ?
#738
b11101111 7
b11000110 ?
#739
b11110000 7
b11000111 ?
#740
b11110001 7
b11001000 ?
#741
b11110010 7
b11001001 ?
#742
b11110011 7
b11001010 ?
#743
b11110100 7
b11001011 ?
#744
b11110101 7
b11001100 ?
#745
b11110110 7
b11001101 ?
#746
b11110111 7
b11001110 ?
#747
b11111000 7
b11001111 ?
#748
b11111001 7
b11010000 ?
#749
b11111010 7
b11010001 ?
#750
b11111011 7
b11010010 ?
#751
b11111100 7
b11010011 ?
#752
b11111101 7
b11010100 ?
#753
b11111110 7
b11010101 ?
#754
b11111111 7
b11010110 ?
#755
b0 7
b11010111 ?
#756
b1 7
#757
b10 7
b11011000 ?
#758
b11 7
b11011001 ?
#759
b100 7
b11011010 ?
#760
b101 7
b11011011 ?
#761
b110 7
b11011100 ?
#762
b111 7
b11011101 ?
#763
b1000 7
b11011110 ?
#764
b1001 7
b11011111 ?
#765
b1010 7
b11100000 ?
#766
b1011 7
b11100001 ?
#767
b1100 7
b11100010 ?
#768
b1101 7
b11100011 ?
#769
b1110 7
b11100100 ?
#770
b1111 7
b11100101 ?
#771
b10000 7
b11100110 ?
#772
b10001 7
b11100111 ?
#773
b10010 7
b11101000 ?
#774
b10011 7
b11101001 ?
#775
b10100 7
b11101010 ?
#776
b10101 7
b11101011 ?
#777
b10110 7
b11101100 ?
#778
b10111 7
b11101101 ?
#779
b11000 7
b11101110 ?
#780
b11001 7
b11101111 ?
#781
b11010 7
b11110000 ?
#782
b11011 7
b11110001 ?
#783
b11100 7
b11110010 ?
#784
b11101 7
b11110011 ?
#785
b11110 7
b11110100 ?
#786
b11111 7
b11110101 ?
#787
b100000 7
b11110110 ?
#788
b100001 7
b11110111 ?
#789
b100010 7
b11111000 ?
#790
b100011 7
b11111001 ?
#791
b100100 7
b11111010 ?
#792
b100101 7
b11111011 ?
#793
b100110 7
b11111100 ?
#794
b100111 7
b11111101 ?
#795
b101000 7
b11111110 ?
#796
b101001 7
b11111111 ?
#797
b101010 7
b0 ?
#798
b101011 7
b1 ?
#799
b101100 7
b10 ?
#800
b101101 7
b11 ?
#801
b101110 7
b100 ?
#802
b101111 7
b101 ?
#803
b110000 7
b110 ?
#804
b110001 7
b111 ?
#805
b110010 7
b1000 ?
#806
b110011 7
b1001 ?
#807
b110100 7
b1010 ?
#808
b110101 7
b1011 ?
#809
b110110 7
b1100 ?
#810
b110111 7
b1101 ?
#811
b111000 7
b1110 ?
#812
b111001 7
b1111 ?
#813
b111010 7
b10000 ?
#814
b111011 7
b10001 ?
#815
b111100 7
b10010 ?
#816
b111101 7
b10011 ?
#817
b111110 7
b10100 ?
#818
b111111 7
b10101 ?
#819
b1000000 7
b10110 ?
#820
b1000001 7
b10111 ?
#821
b1000010 7
b11000 ?
#822
b1000011 7
b11001 ?
#823
b1000100 7
b11010 ?
#824
b1000101 7
b11011 ?
#825
b1000110 7
b11100 ?
#826
b1000111 7
b11101 ?
#827
b1001000 7
b11110 ?
#828
b1001001 7
b11111 ?
#829
b1001010 7
b100000 ?
#830
b1001011 7
b100001 ?
#831
b1001100 7
b100010 ?
#832
b1001101 7
b100011 ?
#833
b1001110 7
b100100 ?
#834
b1001111 7
b100101 ?
#835
b1010000 7
b100110 ?
#836
b1010001 7
b100111 ?
#837
b1010010 7
b101000 ?
#838
b1010011 7
b101001 ?
#839
b1010100 7
b101010 ?
#840
b1010101 7
b101011 ?
#841
b1010110 7
b101100 ?
#842
b1010111 7
b101101 ?
#843
b1011000 7
b101110 ?
#844
b1011001 7
b101111 ?
#845
b1011010 7
b110000 ?
#846
b1011011 7
b110001 ?
#847
b1011100 7
b110010 ?
#848
b1011101 7
b110011 ?
#849
b1011110 7
b110100 ?
#850
b1011111 7
b110101 ?
#851
b1100000 7
b110110 ?
#852
b1100001 7
b110111 ?
#853
b1100010 7
b111000 ?
#854
b1100011 7
b111001 ?
#855
b1100100 7
b111010 ?
#856
b1100101 7
b111011 ?
#857
b1100110 7
b111100 ?
#858
b1100111 7
b111101 ?
#859
b1101000 7
b111110 ?
#860
b1101001 7
b111111 ?
#861
b1101010 7
b1000000 ?
#862
b1101011 7
b1000001 ?
#863
b1101100 7
b1000010 ?
#864
b1101101 7
b1000011 ?
#865
b1101110 7
b1000100 ?
#866
b1101111 7
b1000101 ?
#867
b1110000 7
b1000110 ?
#868
b1110001 7
b1000111 ?
#869
b1110010 7
b1001000 ?
#870
b1110011 7
b1001001 ?
#871
b1110100 7
b1001010 ?
#872
b1110101 7
b1001011 ?
#873
b1110110 7
b1001100 ?
#874
b1110111 7
b1001101 ?
#875
b1111000 7
b1001110 ?
#876
b1111001 7
b1001111 ?
#877
b1111010 7
b1010000 ?
#878
b1111011 7
b1010001 ?
#879
b1111100 7
b1010010 ?
#880
b1111101 7
b1010011 ?
#881
b1111110 7
b1010100 ?
#882
b1111111 7
b1010101 ?
#883
b10000000 7
b1010110 ?
#884
b10000001 7
b1010111 ?
#885
b10000010 7
b1011000 ?
#886
b10000011 7
b1011001 ?
#887
b10000100 7
b1011010 ?
#888
b10000101 7
b1011011 ?
#889
b10000110 7
b1011100 ?
#890
b10000111 7
b1011101 ?
#891
b10001000 7
b1011110 ?
#892
b10001001 7
b1011111 ?
#893
b10001010 7
b1100000 ?
#894
b10001011 7
b1100001 ?
#895
b10001100 7
b1100010 ?
#896
b10001101 7
b1100011 ?
#897
b10001110 7
b1100100 ?
#898
b10001111 7
b1100101 ?
#899
b10010000 7
b1100110 ?
#900
b10010001 7
b1100111 ?
#901
b10010010 7
b1101000 ?
#902
b10010011 7
b1101001 ?
#903
b10010100 7
b1101010 ?
#904
b10010101 7
b1101011 ?
#905
b10010110 7
b1101100 ?
#906
b10010111 7
b1101101 ?
#907
b10011000 7
b1101110 ?
#908
b10011001 7
b1101111 ?
#909
b10011010 7
b1110000 ?
#910
b10011011 7
b1110001 ?
#911
b10011100 7
b1110010 ?
#912
b10011101 7
b1110011 ?
#913
b10011110 7
b1110100 ?
#914
b10011111 7
b1110101 ?
#915
b10100000 7
b1110110 ?
#916
b10100001 7
b1110111 ?
#917
b10100010 7
b1111000 ?
#918
b10100011 7
b1111001 ?
#919
b10100100 7
b1111010 ?
#920
b10100101 7
b1111011 ?
#921
b10100110 7
b1111100 ?
#922
b10100111 7
b1111101 ?
#923
b10101000 7
b1111110 ?
#924
b10101001 7
b1111111 ?
#925
b10101010 7
b10000000 ?
#926
b10101011 7
b10000001 ?
#927
b10101100 7
b10000010 ?
#928
b10101101 7
b10000011 ?
#929
b10101110 7
b10000100 ?
#930
b10101111 7
b10000101 ?
#931
b10110000 7
b10000110 ?
#932
b10110001 7
b10000111 ?
#933
b10110010 7
b10001000 ?
#934
b10110011 7
b10001001 ?
#935
b10110100 7
b10001010 ?
#936
b10110101 7
b10001011 ?
#937
b10110110 7
b10001100 ?
#938
b10110111 7
b10001101 ?
#939
b10111000 7
b10001110 ?
#940
b10111001 7
b10001111 ?
#941
b10111010 7
b10010000 ?
#942
b10111011 7
b10010001 ?
#943
b10111100 7
b10010010 ?
#944
b10111101 7
b10010011 ?
#945
b10111110 7
b10010100 ?
#946
b10111111 7
b10010101 ?
#947
b11000000 7
b10010110 ?
#948
b11000001 7
b10010111 ?
#949
b11000010 7
b10011000 ?
#950
b11000011 7
b10011001 ?
#951
b11000100 7
b10011010 ?
#952
b11000101 7
b10011011 ?
#953
b11000110 7
b10011100 ?
#954
b11000111 7
b10011101 ?
#955
b11001000 7
b10011110 ?
#956
b11001001 7
b10011111 ?
#957
b11001010 7
b10100000 ?
#958
b11001011 7
b10100001 ?
#959
b11001100 7
b10100010 ?
#960
b11001101 7
b10100011 ?
#961
b11001110 7
b10100100 ?
#962
b11001111 7
b10100101 ?
#963
b11010000 7
b10100110 ?
#964
b11010001 7
b10100111 ?
#965
b11010010 7
b10101000 ?
#966
b11010011 7
b10101001 ?
#967
b11010100 7
b10101010 ?
#968
b11010101 7
b10101011 ?
#969
b11010110 7
b10101100 ?
#970
b11010111 7
b10101101 ?
#971
b11011000 7
b10101110 ?
#972
b11011001 7
b10101111 ?
#973
b11011010 7
b10110000 ?
#974
b11011011 7
b10110001 ?
#975
b11011100 7
b10110010 ?
#976
b11011101 7
b10110011 ?
#977
b11011110 7
b10110100 ?
#978
b11011111 7
b10110101 ?
#979
b11100000 7
b10110110 ?
#980
b11100001 7
b10110111 ?
#981
b11100010 7
b10111000 ?
#982
b11100011 7
b10111001 ?
#983
b11100100 7
b10111010 ?
#984
b11100101 7
b10111011 ?
#985
b11100110 7
b10111100 ?
#986
b11100111 7
b10111101 ?
#987
b11101000 7
b10111110 ?
#988
b11101001 7
b10111111 ?
#989
b11101010 7
b11000000 ?
#990
b11101011 7
b11000001 ?
#991
b11101100 7
b11000010 ?
#992
b11101101 7
b11000011 ?
#993
b11101110 7
b11000100 ?
#994
b11101111 7
b11000101 ?
#995
b11110000 7
b11000110 ?
#996
b11110001 7
b11000111 ?
#997
b11110010 7
b11001000 ?
#998
b11110011 7
b11001001 ?
#999
b11110100 7
b11001010 ?
#1000
b11110101 7
b11001011 ?
#1001
b11110110 7
b11001100 ?
#1002
b11110111 7
b11001101 ?
#1003
b11111000 7
b11001110 ?
#1004
b11111001 7
b11001111 ?
#1005
b11111010 7
b11010000 ?
#1006
b11111011 7
b11010001 ?
#1007
b11111100 7
b11010010 ?
#1008
b11111101 7
b11010011 ?
#1009
b11111110 7
b11010100 ?
#1010
b11111111 7
b11010101 ?
#1011
b0 7
b11010110 ?
#1012
b1 7
#1013
b10 7
b11010111 ?
#1014
b11 7
b11011000 ?
#1015
b100 7
b11011001 ?
#1016
b101 7
b11011010 ?
#1017
b110 7
b11011011 ?
#1018
b111 7
b11011100 ?
#1019
b1000 7
b11011101 ?
#1020
b1001 7
b11011110 ?
#1021
b1010 7
b11011111 ?
#1022
b1011 7
b11100000 ?
#1023
b1100 7
b11100001 ?
